Library/Bee/artifacts/mvdfrm/Unity.Sysroot.Linux_x86_64.ref.dll_47C0B0C1257E42B5.mvfrm
Library/Bee/artifacts/mvdfrm/Unity.SysrootPackage.Editor.ref.dll_795E971823712576.mvfrm
Library/Bee/artifacts/mvdfrm/UnityEditor.TestRunner.ref.dll_2594DFF003AE8269.mvfrm
Library/Bee/artifacts/mvdfrm/UnityEditor.UI.ref.dll_452FB8EBD860BCAB.mvfrm
Library/Bee/artifacts/mvdfrm/UnityEngine.TestRunner.ref.dll_F1B32A9E2F71E054.mvfrm
Library/Bee/artifacts/mvdfrm/UnityEngine.UI.ref.dll_01958F46DE82E516.mvfrm
Library/Bee/artifacts/mvdfrm/UnityEditor.Graphs.dll_F04E0B5F24EC1C4A.mvfrm
Library/Bee/artifacts/mvdfrm/UnityEditor.CoreModule.dll_803CA634B719AA18.mvfrm
Library/Bee/artifacts/mvdfrm/UnityEditor.DeviceSimulatorModule.dll_7DC63D9A40A56729.mvfrm
Library/Bee/artifacts/mvdfrm/UnityEditor.DiagnosticsModule.dll_2712CF777BCE2737.mvfrm
Library/Bee/artifacts/mvdfrm/UnityEditor.EditorToolbarModule.dll_45DA76A4A5D0C9D9.mvfrm
Library/Bee/artifacts/mvdfrm/UnityEditor.GraphViewModule.dll_1CC767648FA00A2E.mvfrm
Library/Bee/artifacts/mvdfrm/UnityEditor.PresetsUIModule.dll_D82DA04691F86233.mvfrm
Library/Bee/artifacts/mvdfrm/UnityEditor.QuickSearchModule.dll_B2225084D4A52390.mvfrm
Library/Bee/artifacts/mvdfrm/UnityEditor.SceneTemplateModule.dll_6979E762A4BD7411.mvfrm
Library/Bee/artifacts/mvdfrm/UnityEditor.SceneViewModule.dll_5B774A6C84C2D73C.mvfrm
Library/Bee/artifacts/mvdfrm/UnityEditor.TextCoreFontEngineModule.dll_F5C1A48CAED4C096.mvfrm
Library/Bee/artifacts/mvdfrm/UnityEditor.TextCoreTextEngineModule.dll_3DA9DAFE3E5879B4.mvfrm
Library/Bee/artifacts/mvdfrm/UnityEditor.UIBuilderModule.dll_7150148102588362.mvfrm
Library/Bee/artifacts/mvdfrm/UnityEditor.UIElementsModule.dll_71AF34B2352D3254.mvfrm
Library/Bee/artifacts/mvdfrm/UnityEditor.UIElementsSamplesModule.dll_6496F9CFCEC8F059.mvfrm
Library/Bee/artifacts/mvdfrm/UnityEditor.UnityConnectModule.dll_5F99D67D48DB64CE.mvfrm
Library/Bee/artifacts/mvdfrm/UnityEditor.dll_DD4886D77009E3FD.mvfrm
Library/Bee/artifacts/mvdfrm/UnityEngine.AIModule.dll_D83291683167256C.mvfrm
Library/Bee/artifacts/mvdfrm/UnityEngine.ARModule.dll_91A5566B8E848435.mvfrm
Library/Bee/artifacts/mvdfrm/UnityEngine.AccessibilityModule.dll_9C1F52F9A5339BAE.mvfrm
Library/Bee/artifacts/mvdfrm/UnityEngine.AndroidJNIModule.dll_EFF81D857E4CA12A.mvfrm
Library/Bee/artifacts/mvdfrm/UnityEngine.AnimationModule.dll_EB4CE38D69FCDED4.mvfrm
Library/Bee/artifacts/mvdfrm/UnityEngine.AssetBundleModule.dll_F60B8376370BD882.mvfrm
Library/Bee/artifacts/mvdfrm/UnityEngine.AudioModule.dll_BF92FE06AB346AC6.mvfrm
Library/Bee/artifacts/mvdfrm/UnityEngine.ClothModule.dll_267B5B01855149AA.mvfrm
Library/Bee/artifacts/mvdfrm/UnityEngine.ClusterInputModule.dll_DF364B92FA633794.mvfrm
Library/Bee/artifacts/mvdfrm/UnityEngine.ClusterRendererModule.dll_8373000BB06074AD.mvfrm
Library/Bee/artifacts/mvdfrm/UnityEngine.ContentLoadModule.dll_8F21DCB7058E806F.mvfrm
Library/Bee/artifacts/mvdfrm/UnityEngine.CoreModule.dll_A35D79875F1F1543.mvfrm
Library/Bee/artifacts/mvdfrm/UnityEngine.CrashReportingModule.dll_9A7C023FBA7410BB.mvfrm
Library/Bee/artifacts/mvdfrm/UnityEngine.DSPGraphModule.dll_F8CA05215DCDED41.mvfrm
Library/Bee/artifacts/mvdfrm/UnityEngine.DirectorModule.dll_F378A3B7EB6D1C20.mvfrm
Library/Bee/artifacts/mvdfrm/UnityEngine.GIModule.dll_706EDA75CD160D86.mvfrm
Library/Bee/artifacts/mvdfrm/UnityEngine.GameCenterModule.dll_1A4567A0448D921B.mvfrm
Library/Bee/artifacts/mvdfrm/UnityEngine.GridModule.dll_80CE95757773AB3A.mvfrm
Library/Bee/artifacts/mvdfrm/UnityEngine.HotReloadModule.dll_6C95A193452FFA56.mvfrm
Library/Bee/artifacts/mvdfrm/UnityEngine.IMGUIModule.dll_F7F29D6D7165FEA7.mvfrm
Library/Bee/artifacts/mvdfrm/UnityEngine.ImageConversionModule.dll_EF64FDBC32852CA1.mvfrm
Library/Bee/artifacts/mvdfrm/UnityEngine.InputLegacyModule.dll_87509E94CEFD8E73.mvfrm
Library/Bee/artifacts/mvdfrm/UnityEngine.InputModule.dll_2608C5B7216C8F6A.mvfrm
Library/Bee/artifacts/mvdfrm/UnityEngine.JSONSerializeModule.dll_FC36DC35A46EFC38.mvfrm
Library/Bee/artifacts/mvdfrm/UnityEngine.LocalizationModule.dll_1D8315E591DF2A8D.mvfrm
Library/Bee/artifacts/mvdfrm/UnityEngine.NVIDIAModule.dll_140FFBB10A1DE00F.mvfrm
Library/Bee/artifacts/mvdfrm/UnityEngine.ParticleSystemModule.dll_ED8E4B8C28859C49.mvfrm
Library/Bee/artifacts/mvdfrm/UnityEngine.PerformanceReportingModule.dll_439491F09946AD02.mvfrm
Library/Bee/artifacts/mvdfrm/UnityEngine.Physics2DModule.dll_37F2D37E0AF9D669.mvfrm
Library/Bee/artifacts/mvdfrm/UnityEngine.PhysicsModule.dll_03457A807241CA57.mvfrm
Library/Bee/artifacts/mvdfrm/UnityEngine.ProfilerModule.dll_25BEDCEE84C6A32D.mvfrm
Library/Bee/artifacts/mvdfrm/UnityEngine.PropertiesModule.dll_4780A6DEB778F657.mvfrm
Library/Bee/artifacts/mvdfrm/UnityEngine.RuntimeInitializeOnLoadManagerInitializerModule.dll_C55BD5CB09159932.mvfrm
Library/Bee/artifacts/mvdfrm/UnityEngine.ScreenCaptureModule.dll_161E89BAB8DB289A.mvfrm
Library/Bee/artifacts/mvdfrm/UnityEngine.SharedInternalsModule.dll_73763C91A9B327F1.mvfrm
Library/Bee/artifacts/mvdfrm/UnityEngine.SpriteMaskModule.dll_0371DA3065FD2795.mvfrm
Library/Bee/artifacts/mvdfrm/UnityEngine.SpriteShapeModule.dll_0F6CB0D0ECAE108C.mvfrm
Library/Bee/artifacts/mvdfrm/UnityEngine.StreamingModule.dll_9FE1D0DDB9849612.mvfrm
Library/Bee/artifacts/mvdfrm/UnityEngine.SubstanceModule.dll_7C8CE52704D79420.mvfrm
Library/Bee/artifacts/mvdfrm/UnityEngine.SubsystemsModule.dll_6E1F409234450FA8.mvfrm
Library/Bee/artifacts/mvdfrm/UnityEngine.TLSModule.dll_85D33791AB1B2D6B.mvfrm
Library/Bee/artifacts/mvdfrm/UnityEngine.TerrainModule.dll_1D8BF5EF48001345.mvfrm
Library/Bee/artifacts/mvdfrm/UnityEngine.TerrainPhysicsModule.dll_EE08F45F41C896D6.mvfrm
Library/Bee/artifacts/mvdfrm/UnityEngine.TextCoreFontEngineModule.dll_74211FDFC1D27F61.mvfrm
Library/Bee/artifacts/mvdfrm/UnityEngine.TextCoreTextEngineModule.dll_BC0956515156387F.mvfrm
Library/Bee/artifacts/mvdfrm/UnityEngine.TextRenderingModule.dll_3F5DFBC57012A88F.mvfrm
Library/Bee/artifacts/mvdfrm/UnityEngine.TilemapModule.dll_BC885D705FBCF44E.mvfrm
Library/Bee/artifacts/mvdfrm/UnityEngine.UIElementsModule.dll_725DA1FA37714B9F.mvfrm
Library/Bee/artifacts/mvdfrm/UnityEngine.UIModule.dll_D3A62F958DAE2B18.mvfrm
Library/Bee/artifacts/mvdfrm/UnityEngine.UmbraModule.dll_3A67AA1F385B1639.mvfrm
Library/Bee/artifacts/mvdfrm/UnityEngine.UnityAnalyticsCommonModule.dll_DED34F34B32F4B60.mvfrm
Library/Bee/artifacts/mvdfrm/UnityEngine.UnityAnalyticsModule.dll_0D2DBC55D4ACEE45.mvfrm
Library/Bee/artifacts/mvdfrm/UnityEngine.UnityConnectModule.dll_4CF95A8C43636579.mvfrm
Library/Bee/artifacts/mvdfrm/UnityEngine.UnityCurlModule.dll_1E6984BEDA10D0C1.mvfrm
Library/Bee/artifacts/mvdfrm/UnityEngine.UnityTestProtocolModule.dll_2059AFC228C445AF.mvfrm
Library/Bee/artifacts/mvdfrm/UnityEngine.UnityWebRequestAssetBundleModule.dll_175EA207A7FABCD6.mvfrm
Library/Bee/artifacts/mvdfrm/UnityEngine.UnityWebRequestAudioModule.dll_BB90E5CF1FB1779A.mvfrm
Library/Bee/artifacts/mvdfrm/UnityEngine.UnityWebRequestModule.dll_010405663D79C720.mvfrm
Library/Bee/artifacts/mvdfrm/UnityEngine.UnityWebRequestTextureModule.dll_A1F0F2DD0FCC64AF.mvfrm
Library/Bee/artifacts/mvdfrm/UnityEngine.UnityWebRequestWWWModule.dll_86CB9BAD4115F4EB.mvfrm
Library/Bee/artifacts/mvdfrm/UnityEngine.VFXModule.dll_06B1D000818896D8.mvfrm
Library/Bee/artifacts/mvdfrm/UnityEngine.VRModule.dll_2678561B2F68B090.mvfrm
Library/Bee/artifacts/mvdfrm/UnityEngine.VehiclesModule.dll_6B3B9D376596EBBB.mvfrm
Library/Bee/artifacts/mvdfrm/UnityEngine.VideoModule.dll_E49C82716DC6866B.mvfrm
Library/Bee/artifacts/mvdfrm/UnityEngine.VirtualTexturingModule.dll_69E20B1BF8239A21.mvfrm
Library/Bee/artifacts/mvdfrm/UnityEngine.WindModule.dll_19AC54AFF05593AC.mvfrm
Library/Bee/artifacts/mvdfrm/UnityEngine.XRModule.dll_5937191FB8A2FDEE.mvfrm
Library/Bee/artifacts/mvdfrm/UnityEngine.dll_0FECCDAFCE7D70E2.mvfrm
Library/Bee/artifacts/mvdfrm/Unity.Android.Gradle.dll_F4F7145551C70000.mvfrm
Library/Bee/artifacts/mvdfrm/Unity.Android.GradleProject.dll_D5CA11ABEA068FB5.mvfrm
Library/Bee/artifacts/mvdfrm/Unity.Android.Types.dll_20C65BF226E13C3C.mvfrm
Library/Bee/artifacts/mvdfrm/UnityEditor.Android.Extensions.dll_CC64E56D0B78AC40.mvfrm
Library/Bee/artifacts/mvdfrm/UnityEditor.LinuxStandalone.Extensions.dll_4E0D5AB59AE58838.mvfrm
Library/Bee/artifacts/mvdfrm/UnityEditor.iOS.Extensions.Common.dll_9FB7DF18989C369D.mvfrm
Library/Bee/artifacts/mvdfrm/UnityEditor.iOS.Extensions.Xcode.dll_05273ABA2632A3FF.mvfrm
Library/Bee/artifacts/mvdfrm/UnityEditor.iOS.Extensions.dll_6F7DD9DAE0BECE38.mvfrm
Library/Bee/artifacts/mvdfrm/Unity.Plastic.Antlr3.Runtime.dll_06567403B026473B.mvfrm
Library/Bee/artifacts/mvdfrm/Unity.Plastic.Newtonsoft.Json.dll_2AAE32905E8C08CA.mvfrm
Library/Bee/artifacts/mvdfrm/Unity.VisualScripting.IonicZip.dll_AFC4A1775743CCD8.mvfrm
Library/Bee/artifacts/mvdfrm/Unity.VisualScripting.YamlDotNet.dll_295D7F5050B34F24.mvfrm
Library/Bee/artifacts/mvdfrm/Unity.VisualScripting.TextureAssets.dll_C07BA8A41180AD1C.mvfrm
Library/Bee/artifacts/mvdfrm/Unity.VisualScripting.Antlr3.Runtime.dll_DACAA631817C5F43.mvfrm